{
    "document": {
      "nodes": [
        {
            "object": "block",
            "type": "heading-one",
            "nodes": [
              {
                "object": "text",
                "leaves": [
                  {
                    "text": " ",
                    "placeholder": ""
                  }
                ]
              }
            ]
          }
      ]
    }
  }
  